Mini Project 1 – STA 9750 Submission Material
…
Q10

COUNTRY_TOP_10 |>
  filter(category == "TV") |>
  group_by(show_title, season_title) |>
  arrange(week) |>
  filter(week == first(week)) |>
  summarise(`Number of Country` = length(unique(country_name))) |>
  arrange(desc(`Number of Country`))

`summarise()` has grouped output by 'show_title'. You can override using the
`.groups` argument.

# A tibble: 3,872 × 3
# Groups:   show_title [2,823]
   show_title     season_title             `Number of Country`
   <chr>          <chr>                                  <int>
 1 Emily in Paris Emily in Paris: Season 2                  94
 2 3 Body Problem 3 Body Problem: Season 1                  93
 3 Emily in Paris Emily in Paris: Season 3                  93
 4 Emily in Paris Emily in Paris: Season 4                  93
 5 Money Heist    Money Heist: Part 5                       93
 6 ONE PIECE      ONE PIECE: Season 1                       93
 7 Sex Education  Sex Education: Season 3                   93
 8 Sex/Life       Sex/Life: Season 1                        93
 9 Squid Game     Squid Game: Season 2                      93
10 Squid Game     Squid Game: Season 3                      93
# ℹ 3,862 more rows
…
